Implementierung/Python/nichtLinear/tools/csvDateien_M/Uefkt_Exp120_750kHz_5Mhz_ch1.csv

"Record Length",2500,"Points",-2.27999994e-006,0.0003554688
"Sample Interval",3.99999989e-009,s,-2.27599994e-006,0.0003992188
"Trigger Point",570,"Samples",-2.27199994e-006,0.0003695313
"Trigger Time",           0,s,-2.26799994e-006,0.0003734375
"",,,-2.26399994e-006,0.0003492188
"Horizontial Offset",-2.27999994e-006,s,-2.25999994e-006,      0.0004
,,,-2.25599994e-006, 0.000365625
,,,-2.25199994e-006,    0.000375
,,,-2.24799994e-006,0.0003703125
,,,-2.24399994e-006,   0.0003625
,,,-2.23999994e-006,0.0003671875
,,,-2.23599994e-006,0.0003695313
,,,-2.23199994e-006,0.0003328125
,,,-2.22799994e-006, 0.000365625
,,,-2.22399994e-006,0.0003898438
,,,-2.21999994e-006,0.0003320313
,,,-2.21599994e-006,0.0003859375
,,,-2.21199994e-006,  0.00034375
,,,-2.20799994e-006, 0.000378125
,,,-2.20399994e-006,0.0003828125
,,,-2.19999994e-006,  0.00034375
,,,-2.19599994e-006, 0.000378125
,,,-2.19199994e-006,0.0003367188
,,,-2.18799994e-006,0.0003570313
,,,-2.18399994e-006,0.0003757813
,,,-2.17999994e-006,0.0003664063
,,,-2.17599994e-006, 0.000390625
,,,-2.17199994e-006,0.0003757813
,,,-2.16799994e-006,0.0003703125
,,,-2.16399994e-006,0.0004085938
,,,-2.15999994e-006,0.0003632813
,,,-2.15599994e-006,0.0003890625
,,,-2.15199994e-006,    0.000375
,,,-2.14799994e-006,0.0003914063
,,,-2.14399994e-006,0.0003929688
,,,-2.13999994e-006,0.0003398438
,,,-2.13599994e-006,0.0004109375
,,,-2.13199994e-006,0.0003617188
,,,-2.12799994e-006,    0.000375
,,,-2.12399994e-006,0.0003476563
,,,-2.11999994e-006,0.0003351563
,,,-2.11599994e-006, 0.000346875
,,,-2.11199994e-006,0.0003382813
,,,-2.10799994e-006,0.0003734375
,,,-2.10399994e-006,  0.00034375
,,,-2.09999994e-006,   0.0003375
,,,-2.09599994e-006,0.0003085938
,,,-2.09199994e-006,0.0003710938
,,,-2.08799994e-006,0.0003984375
,,,-2.08399994e-006,  0.00035625
,,,-2.07999994e-006,0.0003601563
,,,-2.07599994e-006,   0.0003875
,,,-2.07199994e-006,0.0003554688
,,,-2.06799994e-006,0.0003710938
,,,-2.06399994e-006,0.0004046875
,,,-2.05999994e-006,0.0003632813
,,,-2.05599994e-006, 0.000365625
,,,-2.05199994e-006,0.0003921875
,,,-2.04799994e-006,0.0003890625
,,,-2.04399994e-006,  0.00036875
,,,-2.03999994e-006,0.0003609375
,,,-2.03599994e-006,   0.0003875
,,,-2.03199994e-006,    0.000375
,,,-2.02799994e-006, 0.000334375
,,,-2.02399994e-006,0.0003960938
,,,-2.01999994e-006,0.0003523438
,,,-2.01599994e-006, 0.000365625
,,,-2.01199994e-006,0.0003976563
,,,-2.00799994e-006,0.0003984375
,,,-2.00399994e-006,0.0003515625
,,,-1.99999994e-006,0.0003367188
,,,-1.99599994e-006,0.0003554688
,,,-1.99199994e-006,0.0003765625
,,,-1.98799994e-006,0.0003664063
,,,-1.98399994e-006,0.0003835938
,,,-1.97999994e-006,0.0003515625
,,,-1.97599994e-006, 0.000403125
,,,-1.97199994e-006,0.0003703125
,,,-1.96799994e-006,   0.0003875
,,,-1.96399994e-006, 0.000365625
,,,-1.95999994e-006,0.0003734375
,,,-1.95599994e-006,0.0003921875
,,,-1.95199994e-006,0.0003664063
,,,-1.94799994e-006, 0.000409375
,,,-1.94399995e-006,0.0003664063
,,,-1.93999995e-006,0.0003851563
,,,-1.93599995e-006,0.0004039063
,,,-1.93199995e-006,  0.00040625
,,,-1.92799995e-006,   0.0003875
,,,-1.92399995e-006,0.0003203125
,,,-1.91999995e-006,0.0003820313
,,,-1.91599995e-006,  0.00030625
,,,-1.91199995e-006,0.0003367188
,,,-1.90799995e-006,0.0003453125
,,,-1.90399995e-006,0.0003664063
,,,-1.89999995e-006,0.0003585938
,,,-1.89599995e-006, 0.000353125
,,,-1.89199995e-006, 0.000390625
,,,-1.88799995e-006,0.0003609375
,,,-1.88399995e-006,0.0003570313
,,,-1.87999995e-006,0.0003828125
,,,-1.87599995e-006,0.0003703125
,,,-1.87199995e-006, 0.000353125
,,,-1.86799995e-006,0.0002921875
,,,-1.86399995e-006,0.0003507813
,,,-1.85999995e-006,0.0003328125
,,,-1.85599995e-006,0.0003546875
,,,-1.85199995e-006,0.0003984375
,,,-1.84799995e-006,0.0003640625
,,,-1.84399995e-006,0.0004070313
,,,-1.83999995e-006,0.0004070313
,,,-1.83599995e-006,    0.000375
,,,-1.83199995e-006,0.0003734375
,,,-1.82799995e-006,0.0003445313
,,,-1.82399995e-006,0.0004195313
,,,-1.81999995e-006,0.0003429688
,,,-1.81599995e-006, 0.000371875
,,,-1.81199995e-006,0.0003796875
,,,-1.80799995e-006,0.0003898438
,,,-1.80399995e-006,  0.00036875
,,,-1.79999995e-006,0.0003664063
,,,-1.79599995e-006,0.0003507813
,,,-1.79199995e-006,0.0003882813
,,,-1.78799995e-006,0.0003539063
,,,-1.78399995e-006,0.0003820313
,,,-1.77999995e-006,0.0003945313
,,,-1.77599995e-006,  0.00033125
,,,-1.77199995e-006,  0.00038125
,,,-1.76799995e-006,0.0003570313
,,,-1.76399995e-006,0.0003765625
,,,-1.75999995e-006,0.0003710938
,,,-1.75599995e-006, 0.000378125
,,,-1.75199995e-006,0.0003945313
,,,-1.74799995e-006,  0.00038125
,,,-1.74399995e-006,0.0003484375
,,,-1.73999995e-006,0.0003664063
,,,-1.73599995e-006,0.0003617188
,,,-1.73199995e-006, 0.000384375
,,,-1.72799995e-006,0.0003820313
,,,-1.72399995e-006,0.0004039063
,,,-1.71999995e-006,0.0003710938
,,,-1.71599995e-006,   0.0003625
,,,-1.71199995e-006,0.0004054688
,,,-1.70799995e-006,0.0003671875
,,,-1.70399995e-006,  0.00035625
,,,-1.69999995e-006,  0.00031875
,,,-1.69599995e-006,0.0003257813
,,,-1.69199995e-006, 0.000390625
,,,-1.68799995e-006, 0.000359375
,,,-1.68399995e-006,0.0003734375
,,,-1.67999995e-006,0.0003476563
,,,-1.67599995e-006,0.0003695313
,,,-1.67199995e-006,0.0003585938
,,,-1.66799995e-006,0.0003351563
,,,-1.66399995e-006,0.0003085938
,,,-1.65999995e-006,     0.00035
,,,-1.65599995e-006, 0.000346875
,,,-1.65199995e-006, 0.000359375
,,,-1.64799995e-006,0.0004171875
,,,-1.64399995e-006,0.0003828125
,,,-1.63999995e-006,0.0003414063
,,,-1.63599995e-006,0.0003351563
,,,-1.63199995e-006,0.0003695313
,,,-1.62799995e-006,0.0003265625
,,,-1.62399995e-006,0.0003609375
,,,-1.61999995e-006,0.0003765625
,,,-1.61599995e-006,0.0003414063
,,,-1.61199995e-006, 0.000359375
,,,-1.60799995e-006,0.0003460938
,,,-1.60399995e-006, 0.000328125
,,,-1.59999995e-006,0.0003328125
,,,-1.59599995e-006,0.0003710938
,,,-1.59199995e-006,0.0003640625
,,,-1.58799996e-006,0.0003460938
,,,-1.58399996e-006, 0.000396875
,,,-1.57999996e-006,0.0004039063
,,,-1.57599996e-006,0.0003320313
,,,-1.57199996e-006,0.0003140625
,,,-1.56799996e-006,0.0003367188
,,,-1.56399996e-006,  0.00035625
,,,-1.55999996e-006,0.0003539063
,,,-1.55599996e-006,0.0003578125
,,,-1.55199996e-006,0.0003695313
,,,-1.54799996e-006,0.0003765625
,,,-1.54399996e-006,0.0004046875
,,,-1.53999996e-006, 0.000340625
,,,-1.53599996e-006, 0.000371875
,,,-1.53199996e-006,0.0003757813
,,,-1.52799996e-006,0.0003773438
,,,-1.52399996e-006,0.0003710938
,,,-1.51999996e-006,0.0004210938
,,,-1.51599996e-006,0.0003867188
,,,-1.51199996e-006,0.0003890625
,,,-1.50799996e-006,0.0003953125
,,,-1.50399996e-006,0.0003453125
,,,-1.49999996e-006,0.0003820313
,,,-1.49599996e-006,0.0003835938
,,,-1.49199996e-006,0.0003828125
,,,-1.48799996e-006, 0.000384375
,,,-1.48399996e-006, 0.000421875
,,,-1.47999996e-006,0.0003914063
,,,-1.47599996e-006,0.0003664063
,,,-1.47199996e-006,0.0003554688
,,,-1.46799996e-006,0.0003554688
,,,-1.46399996e-006,0.0003828125
,,,-1.45999996e-006, 0.000371875
,,,-1.45599996e-006,  0.00035625
,,,-1.45199996e-006,0.0003640625
,,,-1.44799996e-006,0.0003703125
,,,-1.44399996e-006,0.0003585938
,,,-1.43999996e-006,0.0002953125
,,,-1.43599996e-006,0.0003804688
,,,-1.43199996e-006,0.0003414063
,,,-1.42799996e-006,0.0003382813
,,,-1.42399996e-006,    0.000325
,,,-1.41999996e-006,0.0003789063
,,,-1.41599996e-006,0.0003640625
,,,-1.41199996e-006,    0.000375
,,,-1.40799996e-006,0.0003398438
,,,-1.40399996e-006,0.0003164063
,,,-1.39999996e-006,0.0003742188
,,,-1.39599996e-006,0.0003359375
,,,-1.39199996e-006,0.0004007813
,,,-1.38799996e-006,0.0003515625
,,,-1.38399996e-006,0.0003476563
,,,-1.37999996e-006,0.0003492188
,,,-1.37599996e-006,  0.00035625
,,,-1.37199996e-006,0.0003992188
,,,-1.36799996e-006,0.0003421875
,,,-1.36399996e-006,0.0003507813
,,,-1.35999996e-006,0.0004039063
,,,-1.35599996e-006,0.0004054688
,,,-1.35199996e-006,0.0003804688
,,,-1.34799996e-006,0.0004023438
,,,-1.34399996e-006,0.0003898438
,,,-1.33999996e-006,    0.000375
,,,-1.33599996e-006,0.0003726563
,,,-1.33199996e-006,0.0003851563
,,,-1.32799996e-006,  0.00039375
,,,-1.32399996e-006,  0.00038125
,,,-1.31999996e-006, 0.000409375
,,,-1.31599996e-006,0.0003765625
,,,-1.31199996e-006,0.0003640625
,,,-1.30799996e-006,  0.00040625
,,,-1.30399996e-006,0.0003617188
,,,-1.29999996e-006, 0.000353125
,,,-1.29599996e-006,0.0003671875
,,,-1.29199996e-006,  0.00036875
,,,-1.28799996e-006,0.0003507813
,,,-1.28399996e-006, 0.000384375
,,,-1.27999996e-006, 0.000428125
,,,-1.27599996e-006, 0.000390625
,,,-1.27199996e-006, 0.000390625
,,,-1.26799996e-006,0.0003609375
,,,-1.26399996e-006,0.0003914063
,,,-1.25999996e-006,0.0003414063
,,,-1.25599996e-006,0.0003648438
,,,-1.25199996e-006,0.0004101563
,,,-1.24799996e-006,0.0004039063
,,,-1.24399996e-006,0.0004179688
,,,-1.23999996e-006,   0.0003625
,,,-1.23599997e-006,0.0003765625
,,,-1.23199997e-006,0.0003765625
,,,-1.22799997e-006,0.0003859375
,,,-1.22399997e-006,0.0003320313
,,,-1.21999997e-006,0.0003914063
,,,-1.21599997e-006,0.0004039063
,,,-1.21199997e-006,0.0003320313
,,,-1.20799997e-006, 0.000396875
,,,-1.20399997e-006, 0.000396875
,,,-1.19999997e-006,    0.000375
,,,-1.19599997e-006,0.0003609375
,,,-1.19199997e-006,0.0003507813
,,,-1.18799997e-006,   0.0003125
,,,-1.18399997e-006,  0.00031875
,,,-1.17999997e-006,0.0003703125
,,,-1.17599997e-006,0.0003460938
,,,-1.17199997e-006, 0.000390625
,,,-1.16799997e-006,0.0004039063
,,,-1.16399997e-006,0.0003867188
,,,-1.15999997e-006,0.0003664063
,,,-1.15599997e-006,0.0003382813
,,,-1.15199997e-006,0.0004007813
,,,-1.14799997e-006,0.0003695313
,,,-1.14399997e-006,0.0003476563
,,,-1.13999997e-006,0.0003210938
,,,-1.13599997e-006, 0.000384375
,,,-1.13199997e-006,0.0003796875
,,,-1.12799997e-006,0.0003820313
,,,-1.12399997e-006, 0.000378125
,,,-1.11999997e-006,0.0003898438
,,,-1.11599997e-006,0.0003507813
,,,-1.11199997e-006,0.0004023438
,,,-1.10799997e-006,0.0003867188
,,,-1.10399997e-006, 0.000371875
,,,-1.09999997e-006, 0.000409375
,,,-1.09599997e-006,0.0004140625
,,,-1.09199997e-006, 0.000446875
,,,-1.08799997e-006,0.0003789063
,,,-1.08399997e-006,0.0003523438
,,,-1.07999997e-006,   0.0003375
,,,-1.07599997e-006,0.0004179688
,,,-1.07199997e-006, 0.000403125
,,,-1.06799997e-006,0.0003414063
,,,-1.06399997e-006,    0.000375
,,,-1.05999997e-006,0.0003648438
,,,-1.05599997e-006,0.0003664063
,,,-1.05199997e-006,0.0004265625
,,,-1.04799997e-006,0.0004132813
,,,-1.04399997e-006, 0.000371875
,,,-1.03999997e-006,0.0003359375
,,,-1.03599997e-006,  0.00038125
,,,-1.03199997e-006,0.0003914063
,,,-1.02799997e-006,0.0003710938
,,,-1.02399997e-006,0.0003523438
,,,-1.01999997e-006,0.0003257813
,,,-1.01599997e-006,0.0003609375
,,,-1.01199997e-006,0.0003398438
,,,-1.00799997e-006,0.0003328125
,,,-1.00399997e-006,   0.0003625
,,,-9.99999972e-007,0.0003335938
,,,-9.95999972e-007,0.0003515625
,,,-9.91999972e-007,0.0003757813
,,,-9.87999972e-007,0.0003703125
,,,-9.83999972e-007,0.0003882813
,,,-9.79999972e-007,0.0004203125
,,,-9.75999972e-007,0.0003859375
,,,-9.71999973e-007,0.0003304688
,,,-9.67999973e-007,0.0003703125
,,,-9.63999973e-007,0.0003992188
,,,-9.59999973e-007,   0.0003625
,,,-9.55999973e-007,0.0003765625
,,,-9.51999973e-007,0.0004054688
,,,-9.47999973e-007, 0.000334375
,,,-9.43999973e-007, 0.000440625
,,,-9.39999973e-007,0.0003867188
,,,-9.35999974e-007,0.0004109375
,,,-9.31999974e-007,0.0003953125
,,,-9.27999974e-007,0.0003992188
,,,-9.23999974e-007,0.0003921875
,,,-9.19999974e-007,0.0004007813
,,,-9.15999974e-007,  0.00036875
,,,-9.11999974e-007, 0.000390625
,,,-9.07999974e-007,0.0003929688
,,,-9.03999974e-007,0.0003757813
,,,-8.99999975e-007,  0.00039375
,,,-8.95999975e-007,0.0003554688
,,,-8.91999975e-007, 0.000396875
,,,-8.87999975e-007,0.0003609375
,,,-8.83999975e-007,0.0003476563
,,,-8.79999975e-007,0.0003507813
,,,-8.75999975e-007,0.0003632813
,,,-8.71999975e-007,0.0003953125
,,,-8.67999975e-007,0.0003632813
,,,-8.63999976e-007,0.0003476563
,,,-8.59999976e-007, 0.000334375
,,,-8.55999976e-007,  0.00031875
,,,-8.51999976e-007,0.0003179688
,,,-8.47999976e-007,0.0003695313
,,,-8.43999976e-007,0.0003546875
,,,-8.39999976e-007, 0.000365625
,,,-8.35999976e-007,0.0003679688
,,,-8.31999976e-007,0.0003242188
,,,-8.27999977e-007,0.0003976563
,,,-8.23999977e-007,0.0003640625
,,,-8.19999977e-007,0.0003039063
,,,-8.15999977e-007, 0.000359375
,,,-8.11999977e-007,0.0003742188
,,,-8.07999977e-007, 0.000334375
,,,-8.03999977e-007,0.0004242188
,,,-7.99999977e-007, 0.000328125
,,,-7.95999977e-007,  0.00031875
,,,-7.91999978e-007,0.0003976563
,,,-7.87999978e-007, 0.000328125
,,,-7.83999978e-007,0.0003546875
,,,-7.79999978e-007,  0.00033125
,,,-7.75999978e-007,0.0003523438
,,,-7.71999978e-007,0.0003960938
,,,-7.67999978e-007, 0.000346875
,,,-7.63999978e-007,0.0003984375
,,,-7.59999979e-007,0.0003523438
,,,-7.55999979e-007,0.0003976563
,,,-7.51999979e-007,0.0003492188
,,,-7.47999979e-007,   0.0003375
,,,-7.43999979e-007,0.0003820313
,,,-7.39999979e-007,0.0004296875
,,,-7.35999979e-007,0.0003640625
,,,-7.31999979e-007,0.0003992188
,,,-7.27999979e-007,0.0003726563
,,,-7.2399998e-007,0.0003476563
,,,-7.1999998e-007,0.0003515625
,,,-7.1599998e-007,0.0003390625
,,,-7.1199998e-007,  0.00040625
,,,-7.0799998e-007,0.0003914063
,,,-7.0399998e-007, 0.000371875
,,,-6.9999998e-007,0.0003976563
,,,-6.9599998e-007,0.0003828125
,,,-6.9199998e-007,0.0004210938
,,,-6.87999981e-007,0.0003773438
,,,-6.83999981e-007,0.0004351563
,,,-6.79999981e-007, 0.000409375
,,,-6.75999981e-007,0.0003742188
,,,-6.71999981e-007,0.0003820313
,,,-6.67999981e-007, 0.000378125
,,,-6.63999981e-007,0.0003859375
,,,-6.59999981e-007,0.0004007813
,,,-6.55999981e-007,  0.00031875
,,,-6.51999982e-007, 0.000384375
,,,-6.47999982e-007,0.0003710938
,,,-6.43999982e-007,0.0003507813
,,,-6.39999982e-007,  0.00039375
,,,-6.35999982e-007,   0.0003625
,,,-6.31999982e-007,0.0003867188
,,,-6.27999982e-007,0.0003390625
,,,-6.23999982e-007,  0.00035625
,,,-6.19999982e-007,0.0003578125
,,,-6.15999983e-007,0.0003453125
,,,-6.11999983e-007,0.0003828125
,,,-6.07999983e-007,0.0003359375
,,,-6.03999983e-007,  0.00036875
,,,-5.99999983e-007,0.0003554688
,,,-5.95999983e-007,0.0003484375
,,,-5.91999983e-007,0.0003898438
,,,-5.87999983e-007,0.0003390625
,,,-5.83999983e-007,0.0003328125
,,,-5.79999984e-007,0.0004046875
,,,-5.75999984e-007,0.0003789063
,,,-5.71999984e-007,0.0003851563
,,,-5.67999984e-007, 0.000315625
,,,-5.63999984e-007,0.0003609375
,,,-5.59999984e-007,0.0004085938
,,,-5.55999984e-007,0.0003484375
,,,-5.51999984e-007,0.0003695313
,,,-5.47999985e-007,  0.00036875
,,,-5.43999985e-007,  0.00035625
,,,-5.39999985e-007,0.0003890625
,,,-5.35999985e-007,0.0003453125
,,,-5.31999985e-007,0.0003898438
,,,-5.27999985e-007,0.0004117188
,,,-5.23999985e-007, 0.000403125
,,,-5.19999985e-007,   0.0004125
,,,-5.15999985e-007,0.0004164063
,,,-5.11999986e-007,0.0004382813
,,,-5.07999986e-007,  0.00036875
,,,-5.03999986e-007,0.0003984375
,,,-4.99999986e-007,  0.00036875
,,,-4.95999986e-007,0.0003453125
,,,-4.91999986e-007,0.0004289063
,,,-4.87999986e-007, 0.000396875
,,,-4.83999986e-007,0.0003367188
,,,-4.79999986e-007,0.0004039063
,,,-4.75999987e-007,0.0004078125
,,,-4.71999987e-007,  0.00029375
,,,-4.67999987e-007,0.0003546875
,,,-4.63999987e-007, 0.000409375
,,,-4.59999987e-007,0.0003734375
,,,-4.55999987e-007,   0.0003875
,,,-4.51999987e-007, 0.000428125
,,,-4.47999987e-007,0.0003609375
,,,-4.43999987e-007,0.0003984375
,,,-4.39999988e-007,0.0003898438
,,,-4.35999988e-007,0.0003265625
,,,-4.31999988e-007,    0.000475
,,,-4.27999988e-007,      0.0004
,,,-4.23999988e-007,0.0003570313
,,,-4.19999988e-007,0.0003484375
,,,-4.15999988e-007,      0.0004
,,,-4.11999988e-007,0.0003898438
,,,-4.07999988e-007,0.0004070313
,,,-4.03999989e-007,0.0003914063
,,,-3.99999989e-007,0.0003320313
,,,-3.95999989e-007, 0.000340625
,,,-3.91999989e-007, 0.000409375
,,,-3.87999989e-007,   0.0004125
,,,-3.83999989e-007,0.0003445313
,,,-3.79999989e-007,  0.00039375
,,,-3.75999989e-007,0.0003953125
,,,-3.71999989e-007,  0.00036875
,,,-3.6799999e-007,0.0003640625
,,,-3.6399999e-007,0.0004101563
,,,-3.5999999e-007,0.0003710938
,,,-3.5599999e-007,0.0003515625
,,,-3.5199999e-007, 0.000434375
,,,-3.4799999e-007,  0.00035625
,,,-3.4399999e-007,0.0003445313
,,,-3.3999999e-007,0.0004367188
,,,-3.3599999e-007,0.0003773438
,,,-3.31999991e-007,0.0003226563
,,,-3.27999991e-007,0.0003929688
,,,-3.23999991e-007,0.0004039063
,,,-3.19999991e-007,0.0003765625
,,,-3.15999991e-007,0.0004265625
,,,-3.11999991e-007,0.0004046875
,,,-3.07999991e-007,  0.00031875
,,,-3.03999991e-007,0.0003945313
,,,-2.99999992e-007,0.0004226563
,,,-2.95999992e-007,0.0003757813
,,,-2.91999992e-007,0.0003820313
,,,-2.87999992e-007,0.0003632813
,,,-2.83999992e-007,0.0003703125
,,,-2.79999992e-007,0.0003960938
,,,-2.75999992e-007,0.0003984375
,,,-2.71999992e-007,   0.0003875
,,,-2.67999992e-007,0.0003328125
,,,-2.63999993e-007,0.0003960938
,,,-2.59999993e-007,0.0003132813
,,,-2.55999993e-007,0.0003851563
,,,-2.51999993e-007,0.0003851563
,,,-2.47999993e-007, 0.000340625
,,,-2.43999993e-007,0.0003835938
,,,-2.39999993e-007,   0.0003875
,,,-2.35999993e-007,0.0003570313
,,,-2.31999993e-007,   0.0003125
,,,-2.27999994e-007,0.0003992188
,,,-2.23999994e-007,0.0003671875
,,,-2.19999994e-007,0.0003164063
,,,-2.15999994e-007,0.0004289063
,,,-2.11999994e-007,   0.0003625
,,,-2.07999994e-007,0.0002703125
,,,-2.03999994e-007,0.0004023438
,,,-1.99999994e-007,0.0004257813
,,,-1.95999994e-007,0.0003109375
,,,-1.91999995e-007,  0.00043125
,,,-1.87999995e-007,0.0004367188
,,,-1.83999995e-007,0.0002695313
,,,-1.79999995e-007,0.0003953125
,,,-1.75999995e-007, 0.000415625
,,,-1.71999995e-007, 0.000240625
,,,-1.67999995e-007,0.0003945313
,,,-1.63999995e-007, 0.000453125
,,,-1.59999995e-007,0.0002945313
,,,-1.55999996e-007,0.0003109375
,,,-1.51999996e-007,0.0005820313
,,,-1.47999996e-007,      0.0003
,,,-1.43999996e-007, 0.000284375
,,,-1.39999996e-007,0.0005734375
,,,-1.35999996e-007,0.0003492188
,,,-1.31999996e-007,   0.0002375
,,,-1.27999996e-007,0.0006742188
,,,-1.23999996e-007,0.0004898438
,,,-1.19999997e-007, 7.1875e-005
,,,-1.15999997e-007,0.0006109375
,,,-1.11999997e-007,     0.00075
,,,-1.07999997e-007,-0.0001257813
,,,-1.03999997e-007,0.0004140625
,,,-9.99999972e-008, 0.001315625
,,,-9.59999973e-008,-3.828125e-005
,,,-9.19999974e-008,-0.002098438
,,,-8.79999975e-008,-0.003122656
,,,-8.39999976e-008,-0.004370313
,,,-7.99999977e-008,   -0.005875
,,,-7.59999979e-008,-0.006308594
,,,-7.1999998e-008,  -0.0067375
,,,-6.79999981e-008,-0.007653907
,,,-6.39999982e-008,-0.008011719
,,,-5.99999983e-008,-0.008496875
,,,-5.59999984e-008,-0.009558594
,,,-5.19999985e-008,-0.009630469
,,,-4.79999986e-008,-0.009165625
,,,-4.39999988e-008,-0.009477344
,,,-3.99999989e-008,-0.009313282
,,,-3.5999999e-008,-0.008663282
,,,-3.19999991e-008,-0.008660938
,,,-2.79999992e-008,-0.008127344
,,,-2.39999993e-008,-0.006305469
,,,-1.99999994e-008,-0.004953125
,,,-1.59999995e-008,-0.004267188
,,,-1.19999997e-008, -0.00296875
,,,-7.99999977e-009,-0.001960938
,,,-3.99999989e-009,-0.001522656
,,,           0,-4.453125e-005
,,,3.99999989e-009,  0.00146875
,,,7.99999977e-009, 0.002214844
,,,1.19999997e-008, 0.003472656
,,,1.59999995e-008, 0.004680469
,,,1.99999994e-008,       0.005
,,,2.39999993e-008, 0.005742188
,,,2.79999992e-008,  0.00706875
,,,3.19999991e-008, 0.007535938
,,,3.5999999e-008, 0.007910157
,,,3.99999989e-008, 0.008735157
,,,4.39999988e-008, 0.008565625
,,,4.79999986e-008, 0.008239063
,,,5.19999985e-008, 0.008735157
,,,5.59999984e-008, 0.008639063
,,,5.99999983e-008, 0.007967188
,,,6.39999982e-008, 0.007935938
,,,6.79999981e-008, 0.007415625
,,,7.1999998e-008,  0.00596875
,,,7.59999979e-008, 0.005448438
,,,7.99999977e-008, 0.005215625
,,,8.39999976e-008, 0.003559375
,,,8.79999975e-008, 0.002565625
,,,9.19999974e-008, 0.002366406
,,,9.59999973e-008,0.0004015625
,,,9.99999972e-008,-0.001588281
,,,1.03999997e-007,-0.001135156
,,,1.07999997e-007,-0.000190625
,,,1.11999997e-007,-0.0002210938
,,,1.15999997e-007,0.0002164063
,,,1.19999997e-007,0.0006140625
,,,1.23999996e-007,0.0001054688
