Implementierung/Python/nichtLinear/tools/csvDateien_M/Uefkt_Exp120_4000kHz_5Mhz_ch1.csv

"Record Length",2500,"Points",-1.82399999e-007, 0.007504688
"Sample Interval",3.19999999e-010,s,-1.82079999e-007,  0.00741875
"Trigger Point",570,"Samples",-1.81759999e-007, 0.007349219
"Trigger Time",           0,s,-1.81439999e-007, 0.007282032
"",,,-1.81119999e-007, 0.007204688
"Horizontial Offset",-1.82400002e-007,s,-1.80799999e-007,   0.0070875
,,,-1.80479999e-007, 0.006953125
,,,-1.80159999e-007, 0.006835938
,,,-1.79839999e-007, 0.006755469
,,,-1.79519999e-007, 0.006685157
,,,-1.79199999e-007, 0.006598438
,,,-1.78879999e-007, 0.006489844
,,,-1.78559999e-007, 0.006384375
,,,-1.78239999e-007, 0.006292969
,,,-1.77919999e-007, 0.006213282
,,,-1.77599999e-007, 0.006134375
,,,-1.77279999e-007, 0.006058594
,,,-1.76959999e-007, 0.005985157
,,,-1.76639999e-007,  0.00591875
,,,-1.76319999e-007, 0.005842969
,,,-1.75999999e-007, 0.005764063
,,,-1.75679999e-007, 0.005703907
,,,-1.75359999e-007,    0.005675
,,,-1.75039999e-007, 0.005659375
,,,-1.74719999e-007, 0.005640625
,,,-1.74399999e-007, 0.005608594
,,,-1.74079999e-007, 0.005579688
,,,-1.73759999e-007, 0.005569532
,,,-1.73439999e-007, 0.005569532
,,,-1.73119999e-007, 0.005554688
,,,-1.72799999e-007, 0.005514844
,,,-1.72479999e-007, 0.005455469
,,,-1.72159999e-007, 0.005407032
,,,-1.71839999e-007, 0.005371094
,,,-1.71519999e-007, 0.005345313
,,,-1.71199999e-007, 0.005303125
,,,-1.70879999e-007, 0.005236719
,,,-1.70559999e-007, 0.005148438
,,,-1.70239999e-007, 0.005057813
,,,-1.69919999e-007, 0.004985156
,,,-1.69599999e-007, 0.004920313
,,,-1.69279999e-007, 0.004840625
,,,-1.68959999e-007, 0.004738281
,,,-1.68639999e-007, 0.004614063
,,,-1.68319999e-007,  0.00449375
,,,-1.67999999e-007, 0.004383594
,,,-1.67679999e-007,  0.00426875
,,,-1.67359999e-007, 0.004136719
,,,-1.67039999e-007, 0.003985156
,,,-1.66719999e-007, 0.003835156
,,,-1.66399999e-007, 0.003695313
,,,-1.66079999e-007, 0.003571094
,,,-1.65759999e-007, 0.003450781
,,,-1.65439999e-007, 0.003326563
,,,-1.65119999e-007, 0.003189844
,,,-1.64799999e-007, 0.003046094
,,,-1.64479999e-007, 0.002908594
,,,-1.64159999e-007, 0.002792969
,,,-1.63839999e-007, 0.002716406
,,,-1.63519999e-007, 0.002652344
,,,-1.63199999e-007, 0.002588281
,,,-1.62879999e-007, 0.002511719
,,,-1.62559999e-007, 0.002440625
,,,-1.62239999e-007, 0.002392188
,,,-1.61919999e-007, 0.002359375
,,,-1.61599999e-007, 0.002335938
,,,-1.61279999e-007, 0.002303906
,,,-1.60959999e-007, 0.002291406
,,,-1.60639999e-007,  0.00229375
,,,-1.60319999e-007, 0.002294531
,,,-1.59999999e-007, 0.002271875
,,,-1.59679999e-007, 0.002222656
,,,-1.59359999e-007, 0.002167969
,,,-1.59039999e-007, 0.002130469
,,,-1.58719999e-007, 0.002103125
,,,-1.58399999e-007, 0.002073438
,,,-1.58079999e-007, 0.002033594
,,,-1.57759999e-007, 0.001989063
,,,-1.57439999e-007, 0.001935938
,,,-1.57119999e-007, 0.001860938
,,,-1.56799999e-007, 0.001748438
,,,-1.56479999e-007,    0.001625
,,,-1.56159999e-007, 0.001514063
,,,-1.55839999e-007, 0.001405469
,,,-1.55519999e-007, 0.001272656
,,,-1.55199999e-007, 0.001096875
,,,-1.54879999e-007,      0.0009
,,,-1.54559999e-007,0.0007203125
,,,-1.54239999e-007,0.0005601563
,,,-1.53919999e-007, 0.000390625
,,,-1.53599999e-007,0.0001804688
,,,-1.53279999e-007,-5.9375e-005
,,,-1.52959999e-007, -0.00029375
,,,-1.52639999e-007,     -0.0005
,,,-1.52319999e-007,-0.0006789063
,,,-1.51999999e-007,-0.0008460938
,,,-1.51679999e-007,-0.001021875
,,,-1.51359999e-007,-0.001205469
,,,-1.51039999e-007,-0.001375781
,,,-1.50719999e-007,-0.001522656
,,,-1.50399999e-007,-0.001626563
,,,-1.50079999e-007,-0.001713281
,,,-1.49759999e-007,-0.001800781
,,,-1.49439999e-007,-0.001886719
,,,-1.49119999e-007,-0.001957813
,,,-1.48799999e-007,  -0.0019875
,,,-1.48479999e-007,   -0.001975
,,,-1.48159999e-007,-0.001938281
,,,-1.47839999e-007,-0.001896094
,,,-1.47519999e-007,-0.001859375
,,,-1.47199999e-007,-0.001813281
,,,-1.46879999e-007,-0.001741406
,,,-1.46559999e-007,-0.001635938
,,,-1.46239999e-007,-0.001503125
,,,-1.45919999e-007,-0.001360156
,,,-1.45599999e-007,-0.001219531
,,,-1.45279999e-007,-0.001091406
,,,-1.44959999e-007,-0.0009796875
,,,-1.44639999e-007,-0.0008710938
,,,-1.44319999e-007,-0.000753125
,,,-1.43999999e-007,-0.0006195313
,,,-1.43679999e-007,-0.0004859375
,,,-1.43359999e-007, -0.00036875
,,,-1.43039999e-007,-0.0002773438
,,,-1.42719999e-007,-0.0002109375
,,,-1.42399999e-007,-0.0001640625
,,,-1.42079999e-007,-0.0001078125
,,,-1.41759999e-007,-4.296875e-005
,,,-1.41439999e-007,1.015625e-005
,,,-1.41119999e-007, 4.0625e-005
,,,-1.40799999e-007,3.203125e-005
,,,-1.40479999e-007,8.59375e-006
,,,-1.40159999e-007,-7.8125e-006
,,,-1.39839999e-007,-7.03125e-006
,,,-1.39519999e-007,           0
,,,-1.39199999e-007,-1.640625e-005
,,,-1.38879999e-007,-5.9375e-005
,,,-1.38559999e-007,-0.000121875
,,,-1.38239999e-007,   -0.000175
,,,-1.37919999e-007,-0.0002109375
,,,-1.37599999e-007,-0.000234375
,,,-1.37279999e-007,-0.0002742188
,,,-1.36959999e-007,-0.000328125
,,,-1.36639999e-007,-0.0003914063
,,,-1.36319999e-007,-0.0004179688
,,,-1.35999999e-007, -0.00039375
,,,-1.35679999e-007,-0.0003476563
,,,-1.35359999e-007,-0.0003085938
,,,-1.35039999e-007,-0.0002929688
,,,-1.34719999e-007,-0.0002867188
,,,-1.34399999e-007,-0.0002617188
,,,-1.34079999e-007,-0.0002078125
,,,-1.33759999e-007,-0.0001359375
,,,-1.33439999e-007,-6.5625e-005
,,,-1.33119999e-007,-5.46875e-006
,,,-1.32799999e-007,5.078125e-005
,,,-1.32479999e-007,0.0001171875
,,,-1.32159999e-007,0.0001984375
,,,-1.31839999e-007, 0.000290625
,,,-1.31519999e-007,0.0003710938
,,,-1.31199999e-007,  0.00044375
,,,-1.30879999e-007,0.0005085938
,,,-1.30559999e-007,0.0005703125
,,,-1.30239999e-007,0.0006390625
,,,-1.29919999e-007, 0.000709375
,,,-1.29599999e-007,0.0007695313
,,,-1.29279999e-007,0.0008109375
,,,-1.28959999e-007,0.0008242188
,,,-1.28639999e-007,   0.0008125
,,,-1.28319999e-007,0.0007859375
,,,-1.27999999e-007,0.0007578125
,,,-1.27679999e-007,0.0007335938
,,,-1.27359999e-007,0.0007054688
,,,-1.27039999e-007,0.0006703125
,,,-1.26719999e-007,0.0006289063
,,,-1.26399999e-007,0.0005648438
,,,-1.26079999e-007,0.0004835938
,,,-1.25759999e-007,0.0003882813
,,,-1.25439999e-007,0.0002945313
,,,-1.2512e-007,0.0002179688
,,, -1.248e-007,0.0001523438
,,,-1.2448e-007,8.359375e-005
,,,-1.2416e-007,7.03125e-006
,,,-1.2384e-007,-7.109375e-005
,,,-1.2352e-007,-0.0001429688
,,, -1.232e-007,     -0.0002
,,,-1.2288e-007,-0.0002570313
,,,-1.2256e-007,-0.0003101563
,,,-1.2224e-007,-0.0003515625
,,,-1.2192e-007,-0.0003820313
,,, -1.216e-007,-0.0004015625
,,,-1.2128e-007,-0.000415625
,,,-1.2096e-007,-0.000409375
,,,-1.2064e-007,-0.0003835938
,,,-1.2032e-007,-0.0003445313
,,,   -1.2e-007,-0.0003070313
,,,-1.1968e-007,-0.0002664063
,,,-1.1936e-007,-0.0002101563
,,,-1.1904e-007,-0.0001335938
,,,-1.1872e-007,-4.609375e-005
,,, -1.184e-007,3.359375e-005
,,,-1.1808e-007,  0.00010625
,,,-1.1776e-007,0.0001695313
,,,-1.1744e-007,0.0002171875
,,,-1.1712e-007,0.0002523438
,,, -1.168e-007,0.0002976563
,,,-1.1648e-007,0.0003617188
,,,-1.1616e-007, 0.000446875
,,,-1.1584e-007, 0.000515625
,,,-1.1552e-007,0.0005492188
,,, -1.152e-007,0.0005484375
,,,-1.1488e-007,  0.00054375
,,,-1.1456e-007,0.0005492188
,,,-1.1424e-007,0.0005546875
,,,-1.1392e-007, 0.000540625
,,, -1.136e-007,0.0004953125
,,,-1.1328e-007,0.0004453125
,,,-1.1296e-007,0.0003976563
,,,-1.1264e-007,  0.00035625
,,,-1.1232e-007,0.0003132813
,,,  -1.12e-007,  0.00026875
,,,-1.1168e-007, 0.000234375
,,,-1.1136e-007,0.0002109375
,,,-1.1104e-007, 0.000184375
,,,-1.1072e-007,0.0001460938
,,, -1.104e-007,0.0001101563
,,,-1.1008e-007,  8.125e-005
,,,-1.0976e-007,6.953125e-005
,,,-1.0944e-007,5.46875e-005
,,,-1.0912e-007,2.96875e-005
,,, -1.088e-007,1.71875e-005
,,,-1.0848e-007,1.484375e-005
,,,-1.0816e-007,3.59375e-005
,,,-1.0784e-007,7.734375e-005
,,,-1.0752e-007,0.0001265625
,,, -1.072e-007,0.0001992188
,,,-1.0688e-007,    0.000275
,,,-1.0656e-007,0.0003476563
,,,-1.0624e-007,0.0004179688
,,,-1.0592e-007,0.0004953125
,,, -1.056e-007,0.0005960938
,,,-1.0528e-007,0.0007226563
,,,-1.0496e-007,0.0008476563
,,,-1.0464e-007,0.0009492188
,,,-1.0432e-007, 0.001028125
,,,  -1.04e-007, 0.001107813
,,,-1.0368e-007, 0.001207031
,,,-1.0336e-007, 0.001322656
,,,-1.0304e-007, 0.001432813
,,,-1.0272e-007, 0.001510156
,,, -1.024e-007, 0.001550781
,,,-1.0208e-007, 0.001571875
,,,-1.0176e-007, 0.001602344
,,,-1.0144e-007, 0.001638281
,,,-1.0112e-007, 0.001664844
,,, -1.008e-007, 0.001654688
,,,-1.0048e-007, 0.001623438
,,,-1.0016e-007,  0.00158125
,,,-9.98399996e-008, 0.001532031
,,,-9.95199996e-008, 0.001467188
,,,-9.91999996e-008, 0.001378125
,,,-9.88799996e-008, 0.001273438
,,,-9.85599996e-008, 0.001160156
,,,-9.82399996e-008, 0.001042188
,,,-9.79199996e-008,0.0009226563
,,,-9.75999996e-008,  0.00079375
,,,-9.72799996e-008,0.0006648438
,,,-9.69599996e-008,0.0005367188
,,,-9.66399996e-008,0.0004070313
,,,-9.63199996e-008,0.0002609375
,,,-9.59999996e-008,8.515625e-005
,,,-9.56799996e-008,-0.0001039063
,,,-9.53599996e-008,-0.0002757813
,,,-9.50399996e-008,-0.000409375
,,,-9.47199996e-008,-0.0005132813
,,,-9.43999996e-008,-0.0006273438
,,,-9.40799996e-008,-0.0007757813
,,,-9.37599996e-008,-0.000953125
,,,-9.34399996e-008,-0.001117969
,,,-9.31199996e-008,-0.001250781
,,,-9.27999996e-008,-0.001363281
,,,-9.24799996e-008,-0.001473438
,,,-9.21599996e-008,-0.001594531
,,,-9.18399996e-008, -0.00170625
,,,-9.15199996e-008,-0.001808594
,,,-9.11999996e-008,     -0.0019
,,,-9.08799996e-008,-0.001998438
,,,-9.05599996e-008,-0.002092188
,,,-9.02399996e-008,-0.002184375
,,,-8.99199996e-008,-0.002271875
,,,-8.95999996e-008,-0.002351563
,,,-8.92799996e-008,-0.002426563
,,,-8.89599996e-008, -0.00250625
,,,-8.86399996e-008,     -0.0026
,,,-8.83199996e-008,-0.002707031
,,,-8.79999996e-008,-0.002809375
,,,-8.76799996e-008,-0.002896094
,,,-8.73599997e-008, -0.00295625
,,,-8.70399997e-008,  -0.0030125
,,,-8.67199997e-008,  -0.0030875
,,,-8.63999997e-008,-0.003186719
,,,-8.60799997e-008,-0.003289063
,,,-8.57599997e-008,-0.003378906
,,,-8.54399997e-008,-0.003460938
,,,-8.51199997e-008, -0.00355625
,,,-8.47999997e-008,-0.003672656
,,,-8.44799997e-008,-0.003788281
,,,-8.41599997e-008, -0.00386875
,,,-8.38399997e-008,-0.003914844
,,,-8.35199997e-008,-0.003971094
,,,-8.31999997e-008,-0.004074219
,,,-8.28799997e-008,-0.004209375
,,,-8.25599997e-008,-0.004328125
,,,-8.22399997e-008,-0.004401563
,,,-8.19199997e-008,-0.004447656
,,,-8.15999997e-008,-0.004509375
,,,-8.12799997e-008,-0.004590625
,,,-8.09599997e-008,-0.004665625
,,,-8.06399997e-008,   -0.004725
,,,-8.03199997e-008,-0.004782813
,,,-7.99999997e-008,-0.004863281
,,,-7.96799997e-008,-0.004955469
,,,-7.93599997e-008,-0.005046875
,,,-7.90399997e-008,-0.005132031
,,,-7.87199997e-008, -0.00521875
,,,-7.83999997e-008,-0.005310938
,,,-7.80799997e-008,-0.005407032
,,,-7.77599997e-008,-0.005486719
,,,-7.74399997e-008, -0.00556875
,,,-7.71199997e-008,  -0.0056625
,,,-7.67999997e-008,  -0.0057625
,,,-7.64799997e-008,-0.005857813
,,,-7.61599997e-008,-0.005939844
,,,-7.58399997e-008,-0.006025782
,,,-7.55199997e-008,-0.006113282
,,,-7.51999997e-008, -0.00620625
,,,-7.48799997e-008,-0.006305469
,,,-7.45599997e-008,-0.006414063
,,,-7.42399997e-008, -0.00653125
,,,-7.39199997e-008,-0.006640625
,,,-7.35999997e-008,-0.006744532
,,,-7.32799997e-008,-0.006844532
,,,-7.29599997e-008,-0.006944532
,,,-7.26399997e-008,-0.007048438
,,,-7.23199997e-008,-0.007160938
,,,-7.19999997e-008,-0.007271875
,,,-7.16799997e-008,-0.007377344
,,,-7.13599997e-008,  -0.0074625
,,,-7.10399997e-008,-0.007536719
,,,-7.07199997e-008, -0.00761875
,,,-7.03999997e-008,-0.007708594
,,,-7.00799997e-008,-0.007808594
,,,-6.97599997e-008,-0.007892188
,,,-6.94399997e-008,-0.007954688
,,,-6.91199997e-008,-0.008002344
,,,-6.87999997e-008,-0.008035938
,,,-6.84799997e-008,-0.008053907
,,,-6.81599997e-008,-0.008065625
,,,-6.78399997e-008,-0.008084375
,,,-6.75199997e-008,-0.008127344
,,,-6.71999997e-008,-0.008178125
,,,-6.68799997e-008, -0.00821875
,,,-6.65599997e-008,-0.008245313
,,,-6.62399997e-008,-0.008270313
,,,-6.59199997e-008,-0.008303125
,,,-6.55999997e-008,-0.008345313
,,,-6.52799997e-008,-0.008377344
,,,-6.49599997e-008,  -0.0083875
,,,-6.46399997e-008,-0.008388282
,,,-6.43199997e-008,-0.008394532
,,,-6.39999997e-008,-0.008430469
,,,-6.36799997e-008,-0.008492188
,,,-6.33599997e-008, -0.00855625
,,,-6.30399997e-008,-0.008611719
,,,-6.27199997e-008, -0.00865625
,,,-6.23999998e-008,-0.008707813
,,,-6.20799998e-008,  -0.0087625
,,,-6.17599998e-008,-0.008814844
,,,-6.14399998e-008,-0.008861719
,,,-6.11199998e-008,-0.008921094
,,,-6.07999998e-008,-0.009003125
,,,-6.04799998e-008,-0.009094532
,,,-6.01599998e-008,-0.009177344
,,,-5.98399998e-008,-0.009234375
,,,-5.95199998e-008,-0.009295313
,,,-5.91999998e-008,-0.009361719
,,,-5.88799998e-008,-0.009439844
,,,-5.85599998e-008,-0.009505469
,,,-5.82399998e-008,-0.009552344
,,,-5.79199998e-008,-0.009584375
,,,-5.75999998e-008,-0.009600782
,,,-5.72799998e-008,-0.009614063
,,,-5.69599998e-008,-0.009632813
,,,-5.66399998e-008,-0.009671094
,,,-5.63199998e-008,-0.009727344
,,,-5.59999998e-008,-0.009764063
,,,-5.56799998e-008,-0.009766407
,,,-5.53599998e-008, -0.00974375
,,,-5.50399998e-008,-0.009721875
,,,-5.47199998e-008,-0.009722657
,,,-5.43999998e-008,-0.009729688
,,,-5.40799998e-008,   -0.009725
,,,-5.37599998e-008,     -0.0097
,,,-5.34399998e-008,-0.009665625
,,,-5.31199998e-008,-0.009640625
,,,-5.27999998e-008,-0.009622657
,,,-5.24799998e-008,-0.009596094
,,,-5.21599998e-008,-0.009560157
,,,-5.18399998e-008,-0.009535938
,,,-5.15199998e-008,-0.009533594
,,,-5.11999998e-008,-0.009544532
,,,-5.08799998e-008,-0.009540625
,,,-5.05599998e-008,-0.009508594
,,,-5.02399998e-008,-0.009465625
,,,-4.99199998e-008, -0.00944375
,,,-4.95999998e-008,-0.009457813
,,,-4.92799998e-008,-0.009492188
,,,-4.89599998e-008,-0.009523438
,,,-4.86399998e-008, -0.00954375
,,,-4.83199998e-008,-0.009549219
,,,-4.79999998e-008,-0.009564063
,,,-4.76799998e-008,-0.009592969
,,,-4.73599998e-008,-0.009622657
,,,-4.70399998e-008,-0.009650782
,,,-4.67199998e-008,-0.009671875
,,,-4.63999998e-008,-0.009694532
,,,-4.60799998e-008,-0.009734375
,,,-4.57599998e-008, -0.00978125
,,,-4.54399998e-008,-0.009816407
,,,-4.51199998e-008,-0.009828125
,,,-4.47999998e-008,-0.009820313
,,,-4.44799998e-008,-0.009821094
,,,-4.41599998e-008,-0.009825782
,,,-4.38399998e-008,-0.009832813
,,,-4.35199998e-008,-0.009830469
,,,-4.31999998e-008, -0.00981875
,,,-4.28799998e-008,-0.009807032
,,,-4.25599998e-008,  -0.0097875
,,,-4.22399998e-008,-0.009759375
,,,-4.19199998e-008,-0.009721094
,,,-4.15999998e-008,-0.009689063
,,,-4.12799998e-008,-0.009657032
,,,-4.09599998e-008,   -0.009625
,,,-4.06399998e-008, -0.00958125
,,,-4.03199998e-008,-0.009545313
,,,-3.99999998e-008,-0.009522657
,,,-3.96799998e-008,-0.009500782
,,,-3.93599998e-008, -0.00945625
,,,-3.90399998e-008,-0.009390625
,,,-3.87199998e-008,-0.009320313
,,,-3.83999998e-008,-0.009273438
,,,-3.80799998e-008,-0.009246875
,,,-3.77599998e-008,-0.009220313
,,,-3.74399999e-008,-0.009176563
,,,-3.71199999e-008,-0.009132032
,,,-3.67999999e-008,-0.009103125
,,,-3.64799999e-008,-0.009100782
,,,-3.61599999e-008,-0.009113282
,,,-3.58399999e-008,-0.009121875
,,,-3.55199999e-008, -0.00910625
,,,-3.51999999e-008,-0.009066407
,,,-3.48799999e-008,-0.009028125
,,,-3.45599999e-008,-0.009017969
,,,-3.42399999e-008,-0.009032813
,,,-3.39199999e-008,-0.009053125
,,,-3.35999999e-008,-0.009042188
,,,-3.32799999e-008,-0.009013282
,,,-3.29599999e-008,   -0.008975
,,,-3.26399999e-008,-0.008952344
,,,-3.23199999e-008,-0.008933594
,,,-3.19999999e-008,-0.008910938
,,,-3.16799999e-008,-0.008877344
,,,-3.13599999e-008,-0.008832813
,,,-3.10399999e-008,   -0.008775
,,,-3.07199999e-008,-0.008704688
,,,-3.03999999e-008,-0.008627344
,,,-3.00799999e-008,-0.008557813
,,,-2.97599999e-008,-0.008495313
,,,-2.94399999e-008,-0.008417188
,,,-2.91199999e-008,-0.008313282
,,,-2.87999999e-008,-0.008180469
,,,-2.84799999e-008,-0.008053125
,,,-2.81599999e-008,-0.007955469
,,,-2.78399999e-008,-0.007870313
,,,-2.75199999e-008,-0.007761719
,,,-2.71999999e-008,-0.007616407
,,,-2.68799999e-008,-0.007460938
,,,-2.65599999e-008,-0.007339063
,,,-2.62399999e-008,-0.007235157
,,,-2.59199999e-008,-0.007123438
,,,-2.55999999e-008,-0.006979688
,,,-2.52799999e-008,-0.006825782
,,,-2.49599999e-008,-0.006689063
,,,-2.46399999e-008, -0.00656875
,,,-2.43199999e-008,-0.006430469
,,,-2.39999999e-008,-0.006264844
,,,-2.36799999e-008, -0.00610625
,,,-2.33599999e-008,-0.005990625
,,,-2.30399999e-008,-0.005917188
,,,-2.27199999e-008,-0.005841407
,,,-2.23999999e-008, -0.00574375
,,,-2.20799999e-008,-0.005640625
,,,-2.17599999e-008,  -0.0055625
,,,-2.14399999e-008,-0.005503907
,,,-2.11199999e-008,-0.005436719
,,,-2.07999999e-008, -0.00535625
,,,-2.04799999e-008,-0.005271875
,,,-2.01599999e-008,-0.005203907
,,,-1.98399999e-008,-0.005153906
,,,-1.95199999e-008,-0.005105469
,,,-1.91999999e-008,    -0.00505
,,,-1.88799999e-008,-0.004994531
,,,-1.85599999e-008, -0.00494375
,,,-1.82399999e-008,-0.004877344
,,,-1.79199999e-008,-0.004791406
,,,-1.75999999e-008,-0.004688281
,,,-1.72799999e-008,-0.004600781
,,,-1.69599999e-008,  -0.0045375
,,,-1.66399999e-008, -0.00448125
,,,-1.63199999e-008, -0.00440625
,,,-1.59999999e-008,-0.004308594
,,,-1.56799999e-008,-0.004199219
,,,-1.53599999e-008,-0.004092188
,,,-1.50399999e-008,-0.003992969
,,,-1.47199999e-008,-0.003909375
,,,-1.43999999e-008,-0.003827344
,,,-1.40799999e-008,-0.003742188
,,,-1.37599999e-008,-0.003645313
,,,-1.34399999e-008,-0.003538281
,,,-1.31199999e-008, -0.00343125
,,,-1.27999999e-008, -0.00333125
,,, -1.248e-008,-0.003232813
,,, -1.216e-008,-0.003135156
,,, -1.184e-008,-0.003026563
,,, -1.152e-008,-0.002909375
,,,  -1.12e-008,-0.002799219
,,, -1.088e-008,-0.002709375
,,, -1.056e-008,-0.002639063
,,, -1.024e-008,-0.002579688
,,,-9.91999996e-009,-0.002519531
,,,-9.59999996e-009,-0.002459375
,,,-9.27999996e-009,-0.002394531
,,,-8.95999996e-009,-0.002328906
,,,-8.63999997e-009,-0.002248438
,,,-8.31999997e-009,-0.002167969
,,,-7.99999997e-009,-0.002098438
,,,-7.67999997e-009,    -0.00205
,,,-7.35999997e-009,  -0.0020125
,,,-7.03999997e-009,-0.001954688
,,,-6.71999997e-009,-0.001874219
,,,-6.39999997e-009,-0.001778125
,,,-6.07999998e-009,-0.001697656
,,,-5.75999998e-009,-0.001636719
,,,-5.43999998e-009,-0.001578906
,,,-5.11999998e-009,-0.001503125
,,,-4.79999998e-009,-0.001400781
,,,-4.47999998e-009,-0.001285156
,,,-4.15999998e-009,-0.001169531
,,,-3.83999998e-009,-0.001070313
,,,-3.51999999e-009,-0.0009835938
,,,-3.19999999e-009, -0.00089375
,,,-2.87999999e-009,-0.000796875
,,,-2.55999999e-009,-0.0006921875
,,,-2.23999999e-009,-0.0005804688
,,,-1.91999999e-009, -0.00046875
,,,-1.59999999e-009,-0.000365625
,,,-1.27999999e-009, -0.00026875
,,,-9.59999996e-010, -0.00016875
,,,-6.39999997e-010,-3.90625e-005
,,,-3.19999999e-010, 0.000134375
,,,           0,0.0003320313
,,,3.19999999e-010,0.0004984375
,,,6.39999997e-010,0.0005921875
,,,9.59999996e-010,0.0006335938
,,,1.27999999e-009,0.0006835938
,,,1.59999999e-009,0.0007804688
,,,1.91999999e-009,0.0009148438
,,,2.23999999e-009, 0.001049219
,,,2.55999999e-009, 0.001154688
,,,2.87999999e-009,  0.00123125
,,,3.19999999e-009, 0.001297656
,,,3.51999999e-009, 0.001377344
,,,3.83999998e-009, 0.001459375
,,,4.15999998e-009, 0.001535156
,,,4.47999998e-009, 0.001607031
,,,4.79999998e-009, 0.001680469
,,,5.11999998e-009,  0.00175625
,,,5.43999998e-009, 0.001832813
,,,5.75999998e-009, 0.001904688
,,,6.07999998e-009, 0.001971094
,,,6.39999997e-009, 0.002030469
,,,6.71999997e-009, 0.002091406
,,,7.03999997e-009, 0.002151563
,,,7.35999997e-009, 0.002217969
,,,7.67999997e-009, 0.002305469
,,,7.99999997e-009, 0.002407813
,,,8.31999997e-009,  0.00250625
,,,8.63999997e-009, 0.002584375
,,,8.95999996e-009, 0.002653906
,,,9.27999996e-009, 0.002721875
,,,9.59999996e-009, 0.002802344
,,,9.91999996e-009,  0.00289375
,,,  1.024e-008,  0.00299375
,,,  1.056e-008, 0.003101563
,,,  1.088e-008, 0.003221875
,,,   1.12e-008, 0.003353906
,,,  1.152e-008, 0.003479688
,,,  1.184e-008, 0.003588281
,,,  1.216e-008,   0.0036875
,,,  1.248e-008, 0.003782031
,,,1.27999999e-008, 0.003879688
,,,1.31199999e-008, 0.003984375
