Implementierung/Python/nichtLinear/tools/csvDateien_M/Uefkt_Exp120_250kHz_5Mhz_mth1.csv

"Record Length",2500,"Points",-2.27999994e-006,  0.00021875
"Sample Interval",3.99999989e-009,s,-2.27599994e-006,    7.5e-005
"Trigger Point",570,"Samples",-2.27199994e-006, 0.000278125
"Trigger Time",           0,s,-2.26799994e-006, 0.000265625
"",,,-2.26399994e-006, 8.4375e-005
"Horizontial Offset",-2.27999994e-006,s,-2.25999994e-006,  0.00031875
,,,-2.25599994e-006, 0.000203125
,,,-2.25199994e-006,           0
,,,-2.24799994e-006,  0.00020625
,,,-2.24399994e-006,-2.1875e-005
,,,-2.23999994e-006,      5e-005
,,,-2.23599994e-006, 8.4375e-005
,,,-2.23199994e-006, 7.1875e-005
,,,-2.22799994e-006,  0.00013125
,,,-2.22399994e-006, 0.000159375
,,,-2.21999994e-006, 2.1875e-005
,,,-2.21599994e-006, -1.875e-005
,,,-2.21199994e-006, 2.1875e-005
,,,-2.20799994e-006, 6.5625e-005
,,,-2.20399994e-006,   0.0001375
,,,-2.19999994e-006, 0.000184375
,,,-2.19599994e-006,-7.812501e-005
,,,-2.19199994e-006, 0.000303125
,,,-2.18799994e-006,   0.0001625
,,,-2.18399994e-006,  0.00014375
,,,-2.17999994e-006, 7.1875e-005
,,,-2.17599994e-006,      5e-005
,,,-2.17199994e-006,  0.00025625
,,,-2.16799994e-006, 0.000134375
,,,-2.16399994e-006,   0.0001125
,,,-2.15999994e-006, 5.9375e-005
,,,-2.15599994e-006,  0.00014375
,,,-2.15199994e-006, 0.000178125
,,,-2.14799994e-006,  0.00015625
,,,-2.14399994e-006,  0.00016875
,,,-2.13999994e-006,   0.0001125
,,,-2.13599994e-006, 0.000228125
,,,-2.13199994e-006,      0.0003
,,,-2.12799994e-006,      5e-005
,,,-2.12399994e-006, 0.000103125
,,,-2.11999994e-006,  0.00024375
,,,-2.11599994e-006,  0.00014375
,,,-2.11199994e-006,  0.00025625
,,,-2.10799994e-006,    0.000175
,,,-2.10399994e-006,  0.00023125
,,,-2.09999994e-006, 0.000184375
,,,-2.09599994e-006,     0.00025
,,,-2.09199994e-006, 0.000303125
,,,-2.08799994e-006, 0.000190625
,,,-2.08399994e-006, 0.000221875
,,,-2.07999994e-006, 0.000346875
,,,-2.07599994e-006, 0.000271875
,,,-2.07199994e-006, 0.000290625
,,,-2.06799994e-006, 0.000153125
,,,-2.06399994e-006,   0.0001375
,,,-2.05999994e-006,    0.000175
,,,-2.05599994e-006, 0.000115625
,,,-2.05199994e-006, 0.000153125
,,,-2.04799994e-006,  0.00031875
,,,-2.04399994e-006, 0.000184375
,,,-2.03999994e-006,   0.0003125
,,,-2.03599994e-006, 0.000171875
,,,-2.03199994e-006, 0.000128125
,,,-2.02799994e-006,-2.1875e-005
,,,-2.02399994e-006,  0.00010625
,,,-2.01999994e-006, 0.000159375
,,,-2.01599994e-006,   0.0001875
,,,-2.01199994e-006, 0.000234375
,,,-2.00799994e-006,  3.125e-005
,,,-2.00399994e-006, 0.000196875
,,,-1.99999994e-006,  0.00011875
,,,-1.99599994e-006,  3.125e-006
,,,-1.99199994e-006, 0.000146875
,,,-1.98799994e-006,     -5e-005
,,,-1.98399994e-006, 0.000140625
,,,-1.97999994e-006, 0.000190625
,,,-1.97599994e-006, 0.000115625
,,,-1.97199994e-006, 0.000103125
,,,-1.96799994e-006,8.125001e-005
,,,-1.96399994e-006,-8.4375e-005
,,,-1.95999994e-006, 8.4375e-005
,,,-1.95599994e-006, 5.9375e-005
,,,-1.95199994e-006, -4.375e-005
,,,-1.94799994e-006,  0.00031875
,,,-1.94399995e-006, 0.000121875
,,,-1.93999995e-006, 0.000353125
,,,-1.93599995e-006,9.062501e-005
,,,-1.93199995e-006, -3.125e-005
,,,-1.92799995e-006,   0.0001125
,,,-1.92399995e-006,  0.00013125
,,,-1.91999995e-006,  -6.25e-006
,,,-1.91599995e-006,  0.00013125
,,,-1.91199995e-006,   0.0001875
,,,-1.90799995e-006, 4.0625e-005
,,,-1.90399995e-006, 0.000134375
,,,-1.89999995e-006,    7.5e-005
,,,-1.89599995e-006, 0.000159375
,,,-1.89199995e-006, 0.000128125
,,,-1.88799995e-006, 0.000153125
,,,-1.88399995e-006, 0.000159375
,,,-1.87999995e-006,  0.00018125
,,,-1.87599995e-006,9.062501e-005
,,,-1.87199995e-006, 0.000103125
,,,-1.86799995e-006, 1.5625e-005
,,,-1.86399995e-006,-7.1875e-005
,,,-1.85999995e-006, 8.4375e-005
,,,-1.85599995e-006,   0.0001875
,,,-1.85199995e-006,8.125001e-005
,,,-1.84799995e-006,    7.5e-005
,,,-1.84399995e-006, 8.4375e-005
,,,-1.83999995e-006, 0.000140625
,,,-1.83599995e-006,  5.625e-005
,,,-1.83199995e-006, 9.6875e-005
,,,-1.82799995e-006,      0.0001
,,,-1.82399995e-006, 0.000153125
,,,-1.81999995e-006,  0.00021875
,,,-1.81599995e-006,  -6.25e-006
,,,-1.81199995e-006,    0.000175
,,,-1.80799995e-006,9.375001e-005
,,,-1.80399995e-006,   0.0001625
,,,-1.79999995e-006, 0.000121875
,,,-1.79599995e-006,  0.00021875
,,,-1.79199995e-006, -5.625e-005
,,,-1.78799995e-006,     0.00015
,,,-1.78399995e-006, 0.000228125
,,,-1.77999995e-006, 0.000184375
,,,-1.77599995e-006,  0.00026875
,,,-1.77199995e-006, 8.4375e-005
,,,-1.76799995e-006, 0.000203125
,,,-1.76399995e-006, 0.000140625
,,,-1.75999995e-006, 0.000165625
,,,-1.75599995e-006, 0.000109375
,,,-1.75199995e-006,   0.0001625
,,,-1.74799995e-006,   1.25e-005
,,,-1.74399995e-006, 0.000184375
,,,-1.73999995e-006,   0.0001125
,,,-1.73599995e-006,  0.00029375
,,,-1.73199995e-006,   0.0003125
,,,-1.72799995e-006,  -3.75e-005
,,,-1.72399995e-006, 0.000209375
,,,-1.71999995e-006, 0.000246875
,,,-1.71599995e-006,  0.00016875
,,,-1.71199995e-006,   0.0002625
,,,-1.70799995e-006,   0.0001625
,,,-1.70399995e-006,  0.00030625
,,,-1.69999995e-006, 0.000159375
,,,-1.69599995e-006, 0.000184375
,,,-1.69199995e-006,    0.000175
,,,-1.68799995e-006,     0.00015
,,,-1.68399995e-006, 0.000121875
,,,-1.67999995e-006,   0.0001375
,,,-1.67599995e-006, 0.000109375
,,,-1.67199995e-006,  -1.25e-005
,,,-1.66799995e-006, 6.5625e-005
,,,-1.66399995e-006,  -3.75e-005
,,,-1.65999995e-006,      5e-005
,,,-1.65599995e-006, 6.5625e-005
,,,-1.65199995e-006,-0.000109375
,,,-1.64799995e-006,  -1.25e-005
,,,-1.64399995e-006,    0.000275
,,,-1.63999995e-006,-8.4375e-005
,,,-1.63599995e-006, 0.000128125
,,,-1.63199995e-006, 0.000128125
,,,-1.62799995e-006,  0.00016875
,,,-1.62399995e-006, 3.4375e-005
,,,-1.61999995e-006,7.812501e-005
,,,-1.61599995e-006,  0.00025625
,,,-1.61199995e-006,  0.00014375
,,,-1.60799995e-006, 0.000165625
,,,-1.60399995e-006,   6.25e-005
,,,-1.59999995e-006,   0.0001625
,,,-1.59599995e-006,  0.00021875
,,,-1.59199995e-006, -3.125e-006
,,,-1.58799996e-006, 0.000134375
,,,-1.58399996e-006,  0.00020625
,,,-1.57999996e-006,   8.75e-005
,,,-1.57599996e-006, 0.000315625
,,,-1.57199996e-006,  0.00014375
,,,-1.56799996e-006,    0.000125
,,,-1.56399996e-006,  0.00016875
,,,-1.55999996e-006, 0.000234375
,,,-1.55599996e-006,   6.25e-005
,,,-1.55199996e-006,   0.0002125
,,,-1.54799996e-006,     0.00025
,,,-1.54399996e-006, 0.000121875
,,,-1.53999996e-006,    0.000275
,,,-1.53599996e-006, 0.000240625
,,,-1.53199996e-006, 0.000328125
,,,-1.52799996e-006, 0.000309375
,,,-1.52399996e-006,   0.0003375
,,,-1.51999996e-006, 0.000240625
,,,-1.51599996e-006,     0.00035
,,,-1.51199996e-006,     0.00035
,,,-1.50799996e-006, 0.000340625
,,,-1.50399996e-006, 0.000415625
,,,-1.49999996e-006, 0.000390625
,,,-1.49599996e-006, 0.000190625
,,,-1.49199996e-006, 0.000271875
,,,-1.48799996e-006, 0.000340625
,,,-1.48399996e-006,   0.0003625
,,,-1.47999996e-006, 0.000240625
,,,-1.47599996e-006, 0.000259375
,,,-1.47199996e-006, 0.000353125
,,,-1.46799996e-006, 0.000146875
,,,-1.46399996e-006,   0.0002125
,,,-1.45999996e-006,  0.00023125
,,,-1.45599996e-006, -3.125e-006
,,,-1.45199996e-006,    0.000125
,,,-1.44799996e-006, -9.375e-006
,,,-1.44399996e-006,  0.00015625
,,,-1.43999996e-006,   0.0001625
,,,-1.43599996e-006, 5.3125e-005
,,,-1.43199996e-006,-0.000109375
,,,-1.42799996e-006,  -1.25e-005
,,,-1.42399996e-006,-0.000178125
,,,-1.41999996e-006,    7.5e-005
,,,-1.41599996e-006, 2.1875e-005
,,,-1.41199996e-006, 4.6875e-005
,,,-1.40799996e-006,  1.875e-005
,,,-1.40399996e-006,-4.0625e-005
,,,-1.39999996e-006, 5.3125e-005
,,,-1.39599996e-006,-2.1875e-005
,,,-1.39199996e-006, 3.4375e-005
,,,-1.38799996e-006,  3.125e-006
,,,-1.38399996e-006,-0.000103125
,,,-1.37999996e-006, 2.8125e-005
,,,-1.37599996e-006,   0.0001375
,,,-1.37199996e-006,  0.00013125
,,,-1.36799996e-006, 0.000153125
,,,-1.36399996e-006, -3.125e-006
,,,-1.35999996e-006, 0.000209375
,,,-1.35599996e-006, 0.000146875
,,,-1.35199996e-006,  3.125e-006
,,,-1.34799996e-006, 0.000371875
,,,-1.34399996e-006,  0.00033125
,,,-1.33999996e-006, 3.4375e-005
,,,-1.33599996e-006, 0.000290625
,,,-1.33199996e-006, 0.000284375
,,,-1.32799996e-006, 0.000184375
,,,-1.32399996e-006, 0.000221875
,,,-1.31999996e-006,  0.00019375
,,,-1.31599996e-006, 0.000121875
,,,-1.31199996e-006,  0.00029375
,,,-1.30799996e-006,     0.00035
,,,-1.30399996e-006,  0.00021875
,,,-1.29999996e-006,  0.00036875
,,,-1.29599996e-006, 0.000115625
,,,-1.29199996e-006,  0.00010625
,,,-1.28799996e-006,   0.0001125
,,,-1.28399996e-006, 0.000265625
,,,-1.27999996e-006, 0.000221875
,,,-1.27599996e-006, 0.000178125
,,,-1.27199996e-006,  0.00019375
,,,-1.26799996e-006,    0.000375
,,,-1.26399996e-006, 0.000121875
,,,-1.25999996e-006,6.875001e-005
,,,-1.25599996e-006,   0.0002625
,,,-1.25199996e-006,   0.0001875
,,,-1.24799996e-006,9.375001e-005
,,,-1.24399996e-006,    0.000275
,,,-1.23999996e-006, 0.000278125
,,,-1.23599997e-006, 0.000240625
,,,-1.23199997e-006, 0.000259375
,,,-1.22799997e-006,     0.00015
,,,-1.22399997e-006, 0.000196875
,,,-1.21999997e-006, 2.1875e-005
,,,-1.21599997e-006,  -3.75e-005
,,,-1.21199997e-006, 0.000121875
,,,-1.20799997e-006,  5.625e-005
,,,-1.20399997e-006,8.125001e-005
,,,-1.19999997e-006,  0.00010625
,,,-1.19599997e-006, 0.000140625
,,,-1.19199997e-006,-2.1875e-005
,,,-1.18799997e-006,      5e-005
,,,-1.18399997e-006, 0.000103125
,,,-1.17999997e-006, 2.8125e-005
,,,-1.17599997e-006,    0.000125
,,,-1.17199997e-006,     0.00015
,,,-1.16799997e-006,   0.0001625
,,,-1.16399997e-006,   8.75e-005
,,,-1.15999997e-006,  0.00020625
,,,-1.15599997e-006, 0.000221875
,,,-1.15199997e-006, 4.6875e-005
,,,-1.14799997e-006, 0.000178125
,,,-1.14399997e-006, 0.000121875
,,,-1.13999997e-006,   0.0001625
,,,-1.13599997e-006,  0.00010625
,,,-1.13199997e-006, 0.000396875
,,,-1.12799997e-006, 0.000321875
,,,-1.12399997e-006,    0.000275
,,,-1.11999997e-006, 0.000146875
,,,-1.11599997e-006,     0.00035
,,,-1.11199997e-006, 0.000309375
,,,-1.10799997e-006, 0.000184375
,,,-1.10399997e-006, 0.000328125
,,,-1.09999997e-006,      0.0001
,,,-1.09599997e-006,   0.0001125
,,,-1.09199997e-006,      0.0002
,,,-1.08799997e-006, 0.000328125
,,,-1.08399997e-006,     0.00025
,,,-1.07999997e-006, 0.000171875
,,,-1.07599997e-006,  0.00030625
,,,-1.07199997e-006,     0.00025
,,,-1.06799997e-006,      0.0003
,,,-1.06399997e-006,  0.00026875
,,,-1.05999997e-006, 0.000134375
,,,-1.05599997e-006, 0.000259375
,,,-1.05199997e-006,   0.0001875
,,,-1.04799997e-006, 0.000159375
,,,-1.04399997e-006, 0.000159375
,,,-1.03999997e-006,   0.0001875
,,,-1.03599997e-006, 4.0625e-005
,,,-1.03199997e-006, 0.000134375
,,,-1.02799997e-006,-2.1875e-005
,,,-1.02399997e-006,   1.25e-005
,,,-1.01999997e-006, 9.6875e-005
,,,-1.01599997e-006,    2.5e-005
,,,-1.01199997e-006, 2.1875e-005
,,,-1.00799997e-006,  -6.25e-006
,,,-1.00399997e-006,  3.125e-005
,,,-9.99999972e-007,  3.125e-005
,,,-9.95999972e-007, -0.00013125
,,,-9.91999972e-007, 3.4375e-005
,,,-9.87999972e-007, -3.125e-006
,,,-9.83999972e-007, 0.000121875
,,,-9.79999972e-007, -3.125e-006
,,,-9.75999972e-007,-5.9375e-005
,,,-9.71999973e-007,  -1.25e-005
,,,-9.67999973e-007,  -1.25e-005
,,,-9.63999973e-007,-6.875001e-005
,,,-9.59999973e-007,   1.25e-005
,,,-9.55999973e-007, -9.375e-006
,,,-9.51999973e-007,  3.125e-005
,,,-9.47999973e-007, 0.000215625
,,,-9.43999973e-007,  0.00016875
,,,-9.39999973e-007,  0.00019375
,,,-9.35999974e-007, 0.000221875
,,,-9.31999974e-007, 0.000209375
,,,-9.27999974e-007, 0.000303125
,,,-9.23999974e-007, 0.000278125
,,,-9.19999974e-007, 0.000346875
,,,-9.15999974e-007,  0.00026875
,,,-9.11999974e-007,  0.00029375
,,,-9.07999974e-007, 0.000128125
,,,-9.03999974e-007, 0.000265625
,,,-8.99999975e-007,  0.00023125
,,,-8.95999975e-007, 0.000353125
,,,-8.91999975e-007, 0.000246875
,,,-8.87999975e-007, 0.000303125
,,,-8.83999975e-007, 0.000109375
,,,-8.79999975e-007, 8.4375e-005
,,,-8.75999975e-007,  5.625e-005
,,,-8.71999975e-007,-2.8125e-005
,,,-8.67999975e-007, 0.000184375
,,,-8.63999976e-007, 0.000159375
,,,-8.59999976e-007, 0.000221875
,,,-8.55999976e-007, 2.1875e-005
,,,-8.51999976e-007,9.062501e-005
,,,-8.47999976e-007,    0.000125
,,,-8.43999976e-007, 0.000134375
,,,-8.39999976e-007, -3.125e-006
,,,-8.35999976e-007,-1.5625e-005
,,,-8.31999976e-007,  9.375e-006
,,,-8.27999977e-007,  0.00011875
,,,-8.23999977e-007,-3.4375e-005
,,,-8.19999977e-007,  0.00011875
,,,-8.15999977e-007, 0.000265625
,,,-8.11999977e-007,  0.00010625
,,,-8.07999977e-007,    0.000175
,,,-8.03999977e-007,    7.5e-005
,,,-7.99999977e-007, 0.000109375
,,,-7.95999977e-007,     -0.0001
,,,-7.91999978e-007, 7.1875e-005
,,,-7.87999978e-007, 2.8125e-005
,,,-7.83999978e-007,  9.375e-006
,,,-7.79999978e-007, 0.000178125
,,,-7.75999978e-007, 0.000165625
,,,-7.71999978e-007,  0.00023125
,,,-7.67999978e-007, 0.000278125
,,,-7.63999978e-007,  0.00026875
,,,-7.59999979e-007, 0.000390625
,,,-7.55999979e-007,    0.000475
,,,-7.51999979e-007, 0.000321875
,,,-7.47999979e-007,  0.00041875
,,,-7.43999979e-007,  0.00024375
,,,-7.39999979e-007,    0.000475
,,,-7.35999979e-007,    0.000375
,,,-7.31999979e-007, 0.000353125
,,,-7.27999979e-007,   0.0001625
,,,-7.2399998e-007, 0.000353125
,,,-7.1999998e-007,    0.000375
,,,-7.1599998e-007, 0.000265625
,,,-7.1199998e-007,  0.00031875
,,,-7.0799998e-007,   0.0003875
,,,-7.0399998e-007,    0.000275
,,,-6.9999998e-007,  0.00021875
,,,-6.9599998e-007,  3.125e-005
,,,-6.9199998e-007, 6.5625e-005
,,,-6.87999981e-007, 0.000128125
,,,-6.83999981e-007, 0.000115625
,,,-6.79999981e-007,   1.25e-005
,,,-6.75999981e-007, 0.000146875
,,,-6.71999981e-007,   6.25e-005
,,,-6.67999981e-007, -4.375e-005
,,,-6.63999981e-007,8.125001e-005
,,,-6.59999981e-007,   3.75e-005
,,,-6.55999981e-007, 8.4375e-005
,,,-6.51999982e-007, 1.5625e-005
,,,-6.47999982e-007,9.375001e-005
,,,-6.43999982e-007,     0.00025
,,,-6.39999982e-007, 0.000159375
,,,-6.35999982e-007,  5.625e-005
,,,-6.31999982e-007,  -1.25e-005
,,,-6.27999982e-007,-0.000203125
,,,-6.23999982e-007,   -2.5e-005
,,,-6.19999982e-007,-0.000228125
,,,-6.15999983e-007, -0.00013125
,,,-6.11999983e-007, -0.00013125
,,,-6.07999983e-007, -0.00028125
,,,-6.03999983e-007,-0.000165625
,,,-5.99999983e-007,-0.000165625
,,,-5.95999983e-007,-0.000203125
,,,-5.91999983e-007,-1.5625e-005
,,,-5.87999983e-007,-7.1875e-005
,,,-5.83999983e-007,  9.375e-006
,,,-5.79999984e-007, 4.0625e-005
,,,-5.75999984e-007,8.125001e-005
,,,-5.71999984e-007,-4.6875e-005
,,,-5.67999984e-007,    2.5e-005
,,,-5.63999984e-007, 5.3125e-005
,,,-5.59999984e-007,   1.25e-005
,,,-5.55999984e-007, 4.6875e-005
,,,-5.51999984e-007,     0.00015
,,,-5.47999985e-007, 0.000103125
,,,-5.43999985e-007,9.062501e-005
,,,-5.39999985e-007,  0.00018125
,,,-5.35999985e-007,  0.00018125
,,,-5.31999985e-007, 0.000253125
,,,-5.27999985e-007, 0.000346875
,,,-5.23999985e-007, 0.000271875
,,,-5.19999985e-007,  0.00031875
,,,-5.15999985e-007,    0.000275
,,,-5.11999986e-007,   0.0002375
,,,-5.07999986e-007, 0.000440625
,,,-5.03999986e-007, 0.000465625
,,,-4.99999986e-007, 0.000340625
,,,-4.95999986e-007, 0.000384375
,,,-4.91999986e-007,   0.0003375
,,,-4.87999986e-007,0.0005187501
,,,-4.83999986e-007, 0.000315625
,,,-4.79999986e-007, 0.000296875
,,,-4.75999987e-007, 0.000334375
,,,-4.71999987e-007,  0.00026875
,,,-4.67999987e-007, 0.000215625
,,,-4.63999987e-007, 0.000165625
,,,-4.59999987e-007,  0.00029375
,,,-4.55999987e-007, 0.000159375
,,,-4.51999987e-007,6.875001e-005
,,,-4.47999987e-007,-3.4375e-005
,,,-4.43999987e-007, 5.3125e-005
,,,-4.39999988e-007,-4.6875e-005
,,,-4.35999988e-007,-0.000159375
,,,-4.31999988e-007,     -5e-005
,,,-4.27999988e-007,-0.000103125
,,,-4.23999988e-007,     -0.0001
,,,-4.19999988e-007,-4.6875e-005
,,,-4.15999988e-007,8.125001e-005
,,,-4.11999988e-007,-5.9375e-005
,,,-4.07999988e-007, 0.000109375
,,,-4.03999989e-007, 8.4375e-005
,,,-3.99999989e-007, 6.5625e-005
,,,-3.95999989e-007,-9.6875e-005
,,,-3.91999989e-007, 4.6875e-005
,,,-3.87999989e-007, 3.4375e-005
,,,-3.83999989e-007,   0.0001375
,,,-3.79999989e-007,8.125001e-005
,,,-3.75999989e-007, 0.000290625
,,,-3.71999989e-007, 0.000128125
,,,-3.6799999e-007,  0.00029375
,,,-3.6399999e-007,   0.0001625
,,,-3.5999999e-007,  0.00011875
,,,-3.5599999e-007,  0.00014375
,,,-3.5199999e-007, 3.4375e-005
,,,-3.4799999e-007,  0.00013125
,,,-3.4399999e-007, 0.000228125
,,,-3.3999999e-007,  0.00011875
,,,-3.3599999e-007,  0.00014375
,,,-3.31999991e-007, 0.000140625
,,,-3.27999991e-007, 0.000178125
,,,-3.23999991e-007, 0.000221875
,,,-3.19999991e-007,  0.00013125
,,,-3.15999991e-007,  0.00024375
,,,-3.11999991e-007, 0.000203125
,,,-3.07999991e-007,    0.000225
,,,-3.03999991e-007,   0.0002625
,,,-2.99999992e-007, 0.000246875
,,,-2.95999992e-007,   0.0001125
,,,-2.91999992e-007,   0.0001125
,,,-2.87999992e-007,   1.25e-005
,,,-2.83999992e-007, -9.375e-006
,,,-2.79999992e-007, 0.000165625
,,,-2.75999992e-007,    0.000225
,,,-2.71999992e-007, 7.1875e-005
,,,-2.67999992e-007, 0.000109375
,,,-2.63999993e-007, -9.375e-006
,,,-2.59999993e-007, -3.125e-006
,,,-2.55999993e-007,-4.0625e-005
,,,-2.51999993e-007,9.062501e-005
,,,-2.47999993e-007, 0.000196875
,,,-2.43999993e-007,   0.0002375
,,,-2.39999993e-007, 0.000171875
,,,-2.35999993e-007,   0.0001625
,,,-2.31999993e-007, 0.000178125
,,,-2.27999994e-007, 0.000146875
,,,-2.23999994e-007,  0.00010625
,,,-2.19999994e-007,   0.0001875
,,,-2.15999994e-007,      0.0002
,,,-2.11999994e-007, 0.000203125
,,,-2.07999994e-007, 4.0625e-005
,,,-2.03999994e-007, -3.125e-006
,,,-1.99999994e-007,  0.00010625
,,,-1.95999994e-007,      0.0001
,,,-1.91999995e-007, 0.000184375
,,,-1.87999995e-007, 0.000240625
,,,-1.83999995e-007, 0.000209375
,,,-1.79999995e-007, 0.000353125
,,,-1.75999995e-007, 0.000246875
,,,-1.71999995e-007,   0.0003625
,,,-1.67999995e-007, 0.000340625
,,,-1.63999995e-007,      0.0001
,,,-1.59999995e-007,      0.0003
,,,-1.55999996e-007,  0.00018125
,,,-1.51999996e-007, 0.000321875
,,,-1.47999996e-007, 0.000228125
,,,-1.43999996e-007,   0.0001875
,,,-1.39999996e-007,  0.00015625
,,,-1.35999996e-007, 0.000109375
,,,-1.31999996e-007,      5e-005
,,,-1.27999996e-007,   -7.5e-005
,,,-1.23999996e-007, 0.000159375
,,,-1.19999997e-007,   0.0001625
,,,-1.15999997e-007, 0.000184375
,,,-1.11999997e-007,   0.0002625
,,,-1.07999997e-007, 0.000278125
,,,-1.03999997e-007,  0.00034375
,,,-9.99999972e-008, 0.000278125
,,,-9.59999973e-008,     0.00025
,,,-9.19999974e-008,  0.00034375
,,,-8.79999975e-008,  0.00036875
,,,-8.39999976e-008,  0.00030625
,,,-7.99999977e-008,  0.00034375
,,,-7.59999979e-008,     0.00035
,,,-7.1999998e-008, 0.000365625
,,,-6.79999981e-008, 0.000403125
,,,-6.39999982e-008, 4.0625e-005
,,,-5.99999983e-008,-7.812501e-005
,,,-5.59999984e-008, 6.5625e-005
,,,-5.19999985e-008,  1.875e-005
,,,-4.79999986e-008,-9.375001e-005
,,,-4.39999988e-008,-2.8125e-005
,,,-3.99999989e-008,-0.000146875
,,,-3.5999999e-008,-0.000284375
,,,-3.19999991e-008, 2.1875e-005
,,,-2.79999992e-008,-0.000284375
,,,-2.39999993e-008,  -0.0004125
,,,-1.99999994e-008,  1.875e-005
,,,-1.59999995e-008, -0.00025625
,,,-1.19999997e-008, -0.00086875
,,,-7.99999977e-009,  0.00215625
,,,-3.99999989e-009,    0.010925
,,,           0,   0.0219375
,,,3.99999989e-009,  0.03205313
,,,7.99999977e-009,  0.04129375
,,,1.19999997e-008,     0.05045
,,,1.59999995e-008,  0.05855625
,,,1.99999994e-008,   0.0657875
,,,2.39999993e-008,   0.0721375
,,,2.79999992e-008,  0.07718438
,,,3.19999991e-008,  0.08113126
,,,3.5999999e-008,    0.083875
,,,3.99999989e-008,      0.0851
,,,4.39999988e-008,  0.08521251
,,,4.79999986e-008,  0.08395938
,,,5.19999985e-008,  0.08126876
,,,5.59999984e-008,  0.07739688
,,,5.99999983e-008,  0.07218438
,,,6.39999982e-008,    0.065825
,,,6.79999981e-008,      0.0584
,,,7.1999998e-008,    0.050075
,,,7.59999979e-008,   0.0412375
,,,7.99999977e-008,  0.03129063
,,,8.39999976e-008,    0.021225
,,,8.79999975e-008,  0.01078125
,,,9.19999974e-008, 3.4375e-005
,,,9.59999973e-008, -0.01053125
,,,9.99999972e-008, -0.02088438
,,,1.03999997e-007,    -0.03105
,,,1.07999997e-007,   -0.040725
,,,1.11999997e-007, -0.04974063
,,,1.15999997e-007, -0.05787813
,,,1.19999997e-007, -0.06523438
,,,1.23999996e-007, -0.07148125
